	{
		"PERFIS": 
		[
				{
					"nome" : "home", 
					"PAGES" : 
					[ 
							"'www.youtube.com'"
							 
					]
				}   ,  
				{
					"nome" : "trabalho", 
					"PAGES" : 
					[ 
							"'www.google.com'"
							 ,  
							"'www.gmail.com'"
							 
					]
				}   ,  
				{
					"nome" : "Other", 
					"PAGES" : 
					[ 
							"'www.google.com'"
							 
					]
				}   
		]
		
	}
